
*** Running vivado
    with args -log base_ilmb_v10_4.vds -m64 -product Vivado -mode batch -messageDb vivado.pb -notrace -source base_ilmb_v10_4.tcl


****** Vivado v2018.2 (64-bit)
  **** SW Build 2258646 on Thu Jun 14 20:02:38 MDT 2018
  **** IP Build 2256618 on Thu Jun 14 22:10:49 MDT 2018
    ** Copyright 1986-2018 Xilinx, Inc. All Rights Reserved.

source base_ilmb_v10_4.tcl -notrace
INFO: [IP_Flow 19-4838] Using cached IP synthesis design for IP base_ilmb_v10_4, cache-ID = c8e7bc63226f9d84.
INFO: [Common 17-206] Exiting Vivado at Sun Jan 27 18:48:25 2019...
