
*** Running vivado
    with args -log base_dff_en_reset_vector_0_7.vds -m64 -product Vivado -mode batch -messageDb vivado.pb -notrace -source base_dff_en_reset_vector_0_7.tcl


****** Vivado v2018.2 (64-bit)
  **** SW Build 2258646 on Thu Jun 14 20:02:38 MDT 2018
  **** IP Build 2256618 on Thu Jun 14 22:10:49 MDT 2018
    ** Copyright 1986-2018 Xilinx, Inc. All Rights Reserved.

source base_dff_en_reset_vector_0_7.tcl -notrace
Command: synth_design -top base_dff_en_reset_vector_0_7 -part xc7z020clg400-1 -mode out_of_context
Starting synth_design
Attempting to get a license for feature 'Synthesis' and/or device 'xc7z020'
INFO: [Common 17-349] Got license for feature 'Synthesis' and/or device 'xc7z020'
INFO: Launching helper process for spawning children vivado processes
INFO: Helper process launched with PID 15905 
---------------------------------------------------------------------------------
Starting RTL Elaboration : Time (s): cpu = 00:00:04 ; elapsed = 00:00:09 . Memory (MB): peak = 1339.434 ; gain = 82.875 ; free physical = 3965 ; free virtual = 13044
---------------------------------------------------------------------------------
INFO: [Synth 8-6157] synthesizing module 'base_dff_en_reset_vector_0_7' [/home/maurice/build/CerberusMicroBlaze/CerberusMicroBlaze.srcs/sources_1/bd/base/ip/base_dff_en_reset_vector_0_7/synth/base_dff_en_reset_vector_0_7.v:58]
INFO: [Synth 8-6157] synthesizing module 'dff_en_reset_vector' [/home/maurice/build/CerberusMicroBlaze/CerberusMicroBlaze.srcs/sources_1/bd/base/ipshared/10e3/dff_en_reset_vector.v:5]
	Parameter SIZE bound to: 1 - type: integer 
	Parameter DELAY bound to: 3 - type: integer 
INFO: [Synth 8-6155] done synthesizing module 'dff_en_reset_vector' (1#1) [/home/maurice/build/CerberusMicroBlaze/CerberusMicroBlaze.srcs/sources_1/bd/base/ipshared/10e3/dff_en_reset_vector.v:5]
INFO: [Synth 8-6155] done synthesizing module 'base_dff_en_reset_vector_0_7' (2#1) [/home/maurice/build/CerberusMicroBlaze/CerberusMicroBlaze.srcs/sources_1/bd/base/ip/base_dff_en_reset_vector_0_7/synth/base_dff_en_reset_vector_0_7.v:58]
---------------------------------------------------------------------------------
Finished RTL Elaboration : Time (s): cpu = 00:00:06 ; elapsed = 00:00:12 . Memory (MB): peak = 1384.059 ; gain = 127.500 ; free physical = 3762 ; free virtual = 12842
---------------------------------------------------------------------------------

Report Check Netlist: 
+------+------------------+-------+---------+-------+------------------+
|      |Item              |Errors |Warnings |Status |Description       |
+------+------------------+-------+---------+-------+------------------+
|1     |multi_driven_nets |      0|        0|Passed |Multi driven nets |
+------+------------------+-------+---------+-------+------------------+
---------------------------------------------------------------------------------
Start Handling Custom Attributes
---------------------------------------------------------------------------------
---------------------------------------------------------------------------------
Finished Handling Custom Attributes : Time (s): cpu = 00:00:06 ; elapsed = 00:00:13 . Memory (MB): peak = 1384.059 ; gain = 127.500 ; free physical = 3761 ; free virtual = 12840
---------------------------------------------------------------------------------
---------------------------------------------------------------------------------
Finished RTL Optimization Phase 1 : Time (s): cpu = 00:00:06 ; elapsed = 00:00:13 . Memory (MB): peak = 1384.059 ; gain = 127.500 ; free physical = 3761 ; free virtual = 12840
---------------------------------------------------------------------------------
INFO: [Device 21-403] Loading part xc7z020clg400-1
INFO: [Project 1-570] Preparing netlist for logic optimization

Processing XDC Constraints
Initializing timing engine
Completed Processing XDC Constraints

INFO: [Project 1-111] Unisim Transformation Summary:
No Unisim elements were transformed.

WARNING: [Constraints 18-5210] No constraint will be written out.
Constraint Validation Runtime : Time (s): cpu = 00:00:00.17 ; elapsed = 00:00:00.50 . Memory (MB): peak = 1619.074 ; gain = 1.000 ; free physical = 4291 ; free virtual = 13370
---------------------------------------------------------------------------------
Finished Constraint Validation : Time (s): cpu = 00:00:32 ; elapsed = 00:01:53 . Memory (MB): peak = 1619.074 ; gain = 362.516 ; free physical = 4299 ; free virtual = 13378
---------------------------------------------------------------------------------
---------------------------------------------------------------------------------
Start Loading Part and Timing Information
---------------------------------------------------------------------------------
Loading part: xc7z020clg400-1
---------------------------------------------------------------------------------
Finished Loading Part and Timing Information : Time (s): cpu = 00:00:32 ; elapsed = 00:01:53 . Memory (MB): peak = 1619.074 ; gain = 362.516 ; free physical = 4299 ; free virtual = 13378
---------------------------------------------------------------------------------
---------------------------------------------------------------------------------
Start Applying 'set_property' XDC Constraints
---------------------------------------------------------------------------------
---------------------------------------------------------------------------------
Finished applying 'set_property' XDC Constraints : Time (s): cpu = 00:00:32 ; elapsed = 00:01:53 . Memory (MB): peak = 1619.074 ; gain = 362.516 ; free physical = 4301 ; free virtual = 13380
---------------------------------------------------------------------------------
---------------------------------------------------------------------------------
Finished RTL Optimization Phase 2 : Time (s): cpu = 00:00:32 ; elapsed = 00:01:54 . Memory (MB): peak = 1619.074 ; gain = 362.516 ; free physical = 4296 ; free virtual = 13376
---------------------------------------------------------------------------------

Report RTL Partitions: 
+-+--------------+------------+----------+
| |RTL Partition |Replication |Instances |
+-+--------------+------------+----------+
+-+--------------+------------+----------+
---------------------------------------------------------------------------------
Start RTL Component Statistics 
---------------------------------------------------------------------------------
Detailed RTL Component Info : 
+---Registers : 
	                1 Bit    Registers := 1     
---------------------------------------------------------------------------------
Finished RTL Component Statistics 
---------------------------------------------------------------------------------
---------------------------------------------------------------------------------
Start RTL Hierarchical Component Statistics 
---------------------------------------------------------------------------------
Hierarchical RTL Component report 
Module dff_en_reset_vector 
Detailed RTL Component Info : 
+---Registers : 
	                1 Bit    Registers := 1     
---------------------------------------------------------------------------------
Finished RTL Hierarchical Component Statistics
---------------------------------------------------------------------------------
---------------------------------------------------------------------------------
Start Part Resource Summary
---------------------------------------------------------------------------------
Part Resources:
DSPs: 220 (col length:60)
BRAMs: 280 (col length: RAMB18 60 RAMB36 30)
---------------------------------------------------------------------------------
Finished Part Resource Summary
---------------------------------------------------------------------------------
---------------------------------------------------------------------------------
Start Cross Boundary and Area Optimization
---------------------------------------------------------------------------------
Warning: Parallel synthesis criteria is not met 
---------------------------------------------------------------------------------
Finished Cross Boundary and Area Optimization : Time (s): cpu = 00:00:33 ; elapsed = 00:01:55 . Memory (MB): peak = 1619.074 ; gain = 362.516 ; free physical = 4280 ; free virtual = 13361
---------------------------------------------------------------------------------

Report RTL Partitions: 
+-+--------------+------------+----------+
| |RTL Partition |Replication |Instances |
+-+--------------+------------+----------+
+-+--------------+------------+----------+
---------------------------------------------------------------------------------
Start Applying XDC Timing Constraints
---------------------------------------------------------------------------------
---------------------------------------------------------------------------------
Finished Applying XDC Timing Constraints : Time (s): cpu = 00:00:48 ; elapsed = 00:02:28 . Memory (MB): peak = 1672.074 ; gain = 415.516 ; free physical = 4109 ; free virtual = 13190
---------------------------------------------------------------------------------
---------------------------------------------------------------------------------
Start Timing Optimization
---------------------------------------------------------------------------------
---------------------------------------------------------------------------------
Finished Timing Optimization : Time (s): cpu = 00:00:48 ; elapsed = 00:02:28 . Memory (MB): peak = 1672.074 ; gain = 415.516 ; free physical = 4109 ; free virtual = 13190
---------------------------------------------------------------------------------

Report RTL Partitions: 
+-+--------------+------------+----------+
| |RTL Partition |Replication |Instances |
+-+--------------+------------+----------+
+-+--------------+------------+----------+
---------------------------------------------------------------------------------
Start Technology Mapping
---------------------------------------------------------------------------------
---------------------------------------------------------------------------------
Finished Technology Mapping : Time (s): cpu = 00:00:48 ; elapsed = 00:02:28 . Memory (MB): peak = 1682.090 ; gain = 425.531 ; free physical = 4108 ; free virtual = 13189
---------------------------------------------------------------------------------

Report RTL Partitions: 
+-+--------------+------------+----------+
| |RTL Partition |Replication |Instances |
+-+--------------+------------+----------+
+-+--------------+------------+----------+
---------------------------------------------------------------------------------
Start IO Insertion
---------------------------------------------------------------------------------
---------------------------------------------------------------------------------
Start Flattening Before IO Insertion
---------------------------------------------------------------------------------
---------------------------------------------------------------------------------
Finished Flattening Before IO Insertion
---------------------------------------------------------------------------------
---------------------------------------------------------------------------------
Start Final Netlist Cleanup
---------------------------------------------------------------------------------
---------------------------------------------------------------------------------
Finished Final Netlist Cleanup
---------------------------------------------------------------------------------
---------------------------------------------------------------------------------
Finished IO Insertion : Time (s): cpu = 00:00:49 ; elapsed = 00:02:30 . Memory (MB): peak = 1682.090 ; gain = 425.531 ; free physical = 4249 ; free virtual = 13329
---------------------------------------------------------------------------------

Report Check Netlist: 
+------+------------------+-------+---------+-------+------------------+
|      |Item              |Errors |Warnings |Status |Description       |
+------+------------------+-------+---------+-------+------------------+
|1     |multi_driven_nets |      0|        0|Passed |Multi driven nets |
+------+------------------+-------+---------+-------+------------------+
---------------------------------------------------------------------------------
Start Renaming Generated Instances
---------------------------------------------------------------------------------
---------------------------------------------------------------------------------
Finished Renaming Generated Instances : Time (s): cpu = 00:00:49 ; elapsed = 00:02:30 . Memory (MB): peak = 1682.090 ; gain = 425.531 ; free physical = 4249 ; free virtual = 13329
---------------------------------------------------------------------------------

Report RTL Partitions: 
+-+--------------+------------+----------+
| |RTL Partition |Replication |Instances |
+-+--------------+------------+----------+
+-+--------------+------------+----------+
---------------------------------------------------------------------------------
Start Rebuilding User Hierarchy
---------------------------------------------------------------------------------
---------------------------------------------------------------------------------
Finished Rebuilding User Hierarchy : Time (s): cpu = 00:00:49 ; elapsed = 00:02:30 . Memory (MB): peak = 1682.090 ; gain = 425.531 ; free physical = 4249 ; free virtual = 13329
---------------------------------------------------------------------------------
---------------------------------------------------------------------------------
Start Renaming Generated Ports
---------------------------------------------------------------------------------
---------------------------------------------------------------------------------
Finished Renaming Generated Ports : Time (s): cpu = 00:00:49 ; elapsed = 00:02:30 . Memory (MB): peak = 1682.090 ; gain = 425.531 ; free physical = 4248 ; free virtual = 13329
---------------------------------------------------------------------------------
---------------------------------------------------------------------------------
Start Handling Custom Attributes
---------------------------------------------------------------------------------
---------------------------------------------------------------------------------
Finished Handling Custom Attributes : Time (s): cpu = 00:00:49 ; elapsed = 00:02:30 . Memory (MB): peak = 1682.090 ; gain = 425.531 ; free physical = 4248 ; free virtual = 13329
---------------------------------------------------------------------------------
---------------------------------------------------------------------------------
Start Renaming Generated Nets
---------------------------------------------------------------------------------
---------------------------------------------------------------------------------
Finished Renaming Generated Nets : Time (s): cpu = 00:00:49 ; elapsed = 00:02:30 . Memory (MB): peak = 1682.090 ; gain = 425.531 ; free physical = 4248 ; free virtual = 13329
---------------------------------------------------------------------------------
---------------------------------------------------------------------------------
Start Writing Synthesis Report
---------------------------------------------------------------------------------

Report BlackBoxes: 
+-+--------------+----------+
| |BlackBox name |Instances |
+-+--------------+----------+
+-+--------------+----------+

Report Cell Usage: 
+------+-----+------+
|      |Cell |Count |
+------+-----+------+
|1     |LUT4 |     1|
|2     |FDRE |     1|
+------+-----+------+

Report Instance Areas: 
+------+---------+--------------------+------+
|      |Instance |Module              |Cells |
+------+---------+--------------------+------+
|1     |top      |                    |     2|
|2     |  inst   |dff_en_reset_vector |     2|
+------+---------+--------------------+------+
---------------------------------------------------------------------------------
Finished Writing Synthesis Report : Time (s): cpu = 00:00:49 ; elapsed = 00:02:30 . Memory (MB): peak = 1682.090 ; gain = 425.531 ; free physical = 4248 ; free virtual = 13329
---------------------------------------------------------------------------------
Synthesis finished with 0 errors, 0 critical warnings and 0 warnings.
Synthesis Optimization Runtime : Time (s): cpu = 00:00:28 ; elapsed = 00:00:59 . Memory (MB): peak = 1682.090 ; gain = 190.516 ; free physical = 4305 ; free virtual = 13386
Synthesis Optimization Complete : Time (s): cpu = 00:00:49 ; elapsed = 00:02:30 . Memory (MB): peak = 1682.098 ; gain = 425.531 ; free physical = 4317 ; free virtual = 13397
INFO: [Project 1-571] Translating synthesized netlist
INFO: [Project 1-570] Preparing netlist for logic optimization
INFO: [Opt 31-138] Pushed 0 inverter(s) to 0 load pin(s).
INFO: [Project 1-111] Unisim Transformation Summary:
No Unisim elements were transformed.

INFO: [Common 17-83] Releasing license: Synthesis
13 Infos, 1 Warnings, 0 Critical Warnings and 0 Errors encountered.
synth_design completed successfully
synth_design: Time (s): cpu = 00:00:52 ; elapsed = 00:02:33 . Memory (MB): peak = 1689.090 ; gain = 444.109 ; free physical = 4277 ; free virtual = 13358
WARNING: [Constraints 18-5210] No constraint will be written out.
INFO: [Common 17-1381] The checkpoint '/home/maurice/build/CerberusMicroBlaze/CerberusMicroBlaze.runs/base_dff_en_reset_vector_0_7_synth_1/base_dff_en_reset_vector_0_7.dcp' has been generated.
INFO: [Coretcl 2-1482] Added synthesis output to IP cache for IP /home/maurice/build/CerberusMicroBlaze/CerberusMicroBlaze.srcs/sources_1/bd/base/ip/base_dff_en_reset_vector_0_7/base_dff_en_reset_vector_0_7.xci
WARNING: [Constraints 18-5210] No constraint will be written out.
INFO: [Common 17-1381] The checkpoint '/home/maurice/build/CerberusMicroBlaze/CerberusMicroBlaze.runs/base_dff_en_reset_vector_0_7_synth_1/base_dff_en_reset_vector_0_7.dcp' has been generated.
INFO: [runtcl-4] Executing : report_utilization -file base_dff_en_reset_vector_0_7_utilization_synth.rpt -pb base_dff_en_reset_vector_0_7_utilization_synth.pb
report_utilization: Time (s): cpu = 00:00:00.10 ; elapsed = 00:00:00.28 . Memory (MB): peak = 1709.098 ; gain = 0.000 ; free physical = 4279 ; free virtual = 13359
INFO: [Common 17-206] Exiting Vivado at Sun Jan 27 17:40:50 2019...
